G04 #@! TF.FileFunction,Copper,L2,Bot,Signal*
%FSLAX46Y46*%
G04 Gerber Fmt 4.6, Leading zero omitted, Abs format (unit mm)*
G04 Created by KiCad (PCBNEW 4.0.7) date Monday 29 January 2018 20:53:40*
%MOMM*%
%LPD*%
G01*
G04 APERTURE LIST*
%ADD10C,0.100000*%
%ADD11C,0.150000*%
%ADD12C,0.300000*%
%ADD13C,0.400000*%
%ADD14R,1.700000X1.700000*%
%ADD15O,1.700000X1.700000*%
%ADD16R,1.300000X1.500000*%
%ADD17R,1.500000X1.300000*%
%ADD18R,1.600000X1.600000*%
%ADD19O,1.600000X1.600000*%
%ADD20R,1.200000X2.200000*%
%ADD21R,5.800000X6.400000*%
%ADD22R,2.750000X3.050000*%
%ADD23C,0.600000*%
%ADD24C,0.250000*%
G04 APERTURE END LIST*
D10*
D11*
X177002200Y-166007200D02*
X177002200Y-198007200D01*
X285002200Y-198007200D01*
X285002200Y-166007200D01*
X177002200Y-166007200D01*
D10*
D11*
X10000000Y-10000000D02*
X10000000Y-200007200D01*
X287002200Y-200007200D01*
X287002200Y-10000000D01*
X10000000Y-10000000D01*
D10*
D11*
X12000000Y-12000000D02*
X12000000Y-198007200D01*
X285002200Y-198007200D01*
X285002200Y-12000000D01*
X12000000Y-12000000D01*
D10*
D11*
X60000000Y-12000000D02*
X60000000Y-10000000D01*
D10*
D11*
X110000000Y-12000000D02*
X110000000Y-10000000D01*
D10*
D11*
X160000000Y-12000000D02*
X160000000Y-10000000D01*
D10*
D11*
X210000000Y-12000000D02*
X210000000Y-10000000D01*
D10*
D11*
X260000000Y-12000000D02*
X260000000Y-10000000D01*
D10*
D11*
X35990476Y-11588095D02*
X35247619Y-11588095D01*
X35619048Y-11588095D02*
X35619048Y-10288095D01*
X35495238Y-10473810D01*
X35371429Y-10597619D01*
X35247619Y-10659524D01*
D10*
D11*
X85247619Y-10411905D02*
X85309524Y-10350000D01*
X85433333Y-10288095D01*
X85742857Y-10288095D01*
X85866667Y-10350000D01*
X85928571Y-10411905D01*
X85990476Y-10535714D01*
X85990476Y-10659524D01*
X85928571Y-10845238D01*
X85185714Y-11588095D01*
X85990476Y-11588095D01*
D10*
D11*
X135185714Y-10288095D02*
X135990476Y-10288095D01*
X135557143Y-10783333D01*
X135742857Y-10783333D01*
X135866667Y-10845238D01*
X135928571Y-10907143D01*
X135990476Y-11030952D01*
X135990476Y-11340476D01*
X135928571Y-11464286D01*
X135866667Y-11526190D01*
X135742857Y-11588095D01*
X135371429Y-11588095D01*
X135247619Y-11526190D01*
X135185714Y-11464286D01*
D10*
D11*
X185866667Y-10721429D02*
X185866667Y-11588095D01*
X185557143Y-10226190D02*
X185247619Y-11154762D01*
X186052381Y-11154762D01*
D10*
D11*
X235928571Y-10288095D02*
X235309524Y-10288095D01*
X235247619Y-10907143D01*
X235309524Y-10845238D01*
X235433333Y-10783333D01*
X235742857Y-10783333D01*
X235866667Y-10845238D01*
X235928571Y-10907143D01*
X235990476Y-11030952D01*
X235990476Y-11340476D01*
X235928571Y-11464286D01*
X235866667Y-11526190D01*
X235742857Y-11588095D01*
X235433333Y-11588095D01*
X235309524Y-11526190D01*
X235247619Y-11464286D01*
D10*
D11*
X285866667Y-10288095D02*
X285619048Y-10288095D01*
X285495238Y-10350000D01*
X285433333Y-10411905D01*
X285309524Y-10597619D01*
X285247619Y-10845238D01*
X285247619Y-11340476D01*
X285309524Y-11464286D01*
X285371429Y-11526190D01*
X285495238Y-11588095D01*
X285742857Y-11588095D01*
X285866667Y-11526190D01*
X285928571Y-11464286D01*
X285990476Y-11340476D01*
X285990476Y-11030952D01*
X285928571Y-10907143D01*
X285866667Y-10845238D01*
X285742857Y-10783333D01*
X285495238Y-10783333D01*
X285371429Y-10845238D01*
X285309524Y-10907143D01*
X285247619Y-11030952D01*
D10*
D11*
X60000000Y-198007200D02*
X60000000Y-200007200D01*
D10*
D11*
X110000000Y-198007200D02*
X110000000Y-200007200D01*
D10*
D11*
X160000000Y-198007200D02*
X160000000Y-200007200D01*
D10*
D11*
X210000000Y-198007200D02*
X210000000Y-200007200D01*
D10*
D11*
X260000000Y-198007200D02*
X260000000Y-200007200D01*
D10*
D11*
X35990476Y-199595295D02*
X35247619Y-199595295D01*
X35619048Y-199595295D02*
X35619048Y-198295295D01*
X35495238Y-198481010D01*
X35371429Y-198604819D01*
X35247619Y-198666724D01*
D10*
D11*
X85247619Y-198419105D02*
X85309524Y-198357200D01*
X85433333Y-198295295D01*
X85742857Y-198295295D01*
X85866667Y-198357200D01*
X85928571Y-198419105D01*
X85990476Y-198542914D01*
X85990476Y-198666724D01*
X85928571Y-198852438D01*
X85185714Y-199595295D01*
X85990476Y-199595295D01*
D10*
D11*
X135185714Y-198295295D02*
X135990476Y-198295295D01*
X135557143Y-198790533D01*
X135742857Y-198790533D01*
X135866667Y-198852438D01*
X135928571Y-198914343D01*
X135990476Y-199038152D01*
X135990476Y-199347676D01*
X135928571Y-199471486D01*
X135866667Y-199533390D01*
X135742857Y-199595295D01*
X135371429Y-199595295D01*
X135247619Y-199533390D01*
X135185714Y-199471486D01*
D10*
D11*
X185866667Y-198728629D02*
X185866667Y-199595295D01*
X185557143Y-198233390D02*
X185247619Y-199161962D01*
X186052381Y-199161962D01*
D10*
D11*
X235928571Y-198295295D02*
X235309524Y-198295295D01*
X235247619Y-198914343D01*
X235309524Y-198852438D01*
X235433333Y-198790533D01*
X235742857Y-198790533D01*
X235866667Y-198852438D01*
X235928571Y-198914343D01*
X235990476Y-199038152D01*
X235990476Y-199347676D01*
X235928571Y-199471486D01*
X235866667Y-199533390D01*
X235742857Y-199595295D01*
X235433333Y-199595295D01*
X235309524Y-199533390D01*
X235247619Y-199471486D01*
D10*
D11*
X285866667Y-198295295D02*
X285619048Y-198295295D01*
X285495238Y-198357200D01*
X285433333Y-198419105D01*
X285309524Y-198604819D01*
X285247619Y-198852438D01*
X285247619Y-199347676D01*
X285309524Y-199471486D01*
X285371429Y-199533390D01*
X285495238Y-199595295D01*
X285742857Y-199595295D01*
X285866667Y-199533390D01*
X285928571Y-199471486D01*
X285990476Y-199347676D01*
X285990476Y-199038152D01*
X285928571Y-198914343D01*
X285866667Y-198852438D01*
X285742857Y-198790533D01*
X285495238Y-198790533D01*
X285371429Y-198852438D01*
X285309524Y-198914343D01*
X285247619Y-199038152D01*
D10*
D11*
X10000000Y-60000000D02*
X12000000Y-60000000D01*
D10*
D11*
X10000000Y-110000000D02*
X12000000Y-110000000D01*
D10*
D11*
X10000000Y-160000000D02*
X12000000Y-160000000D01*
D10*
D11*
X10690476Y-35216667D02*
X11309524Y-35216667D01*
X10566667Y-35588095D02*
X11000000Y-34288095D01*
X11433333Y-35588095D01*
D10*
D11*
X11092857Y-84907143D02*
X11278571Y-84969048D01*
X11340476Y-85030952D01*
X11402381Y-85154762D01*
X11402381Y-85340476D01*
X11340476Y-85464286D01*
X11278571Y-85526190D01*
X11154762Y-85588095D01*
X10659524Y-85588095D01*
X10659524Y-84288095D01*
X11092857Y-84288095D01*
X11216667Y-84350000D01*
X11278571Y-84411905D01*
X11340476Y-84535714D01*
X11340476Y-84659524D01*
X11278571Y-84783333D01*
X11216667Y-84845238D01*
X11092857Y-84907143D01*
X10659524Y-84907143D01*
D10*
D11*
X11402381Y-135464286D02*
X11340476Y-135526190D01*
X11154762Y-135588095D01*
X11030952Y-135588095D01*
X10845238Y-135526190D01*
X10721429Y-135402381D01*
X10659524Y-135278571D01*
X10597619Y-135030952D01*
X10597619Y-134845238D01*
X10659524Y-134597619D01*
X10721429Y-134473810D01*
X10845238Y-134350000D01*
X11030952Y-134288095D01*
X11154762Y-134288095D01*
X11340476Y-134350000D01*
X11402381Y-134411905D01*
D10*
D11*
X10659524Y-185588095D02*
X10659524Y-184288095D01*
X10969048Y-184288095D01*
X11154762Y-184350000D01*
X11278571Y-184473810D01*
X11340476Y-184597619D01*
X11402381Y-184845238D01*
X11402381Y-185030952D01*
X11340476Y-185278571D01*
X11278571Y-185402381D01*
X11154762Y-185526190D01*
X10969048Y-185588095D01*
X10659524Y-185588095D01*
D10*
D11*
X287002200Y-60000000D02*
X285002200Y-60000000D01*
D10*
D11*
X287002200Y-110000000D02*
X285002200Y-110000000D01*
D10*
D11*
X287002200Y-160000000D02*
X285002200Y-160000000D01*
D10*
D11*
X285692676Y-35216667D02*
X286311724Y-35216667D01*
X285568867Y-35588095D02*
X286002200Y-34288095D01*
X286435533Y-35588095D01*
D10*
D11*
X286095057Y-84907143D02*
X286280771Y-84969048D01*
X286342676Y-85030952D01*
X286404581Y-85154762D01*
X286404581Y-85340476D01*
X286342676Y-85464286D01*
X286280771Y-85526190D01*
X286156962Y-85588095D01*
X285661724Y-85588095D01*
X285661724Y-84288095D01*
X286095057Y-84288095D01*
X286218867Y-84350000D01*
X286280771Y-84411905D01*
X286342676Y-84535714D01*
X286342676Y-84659524D01*
X286280771Y-84783333D01*
X286218867Y-84845238D01*
X286095057Y-84907143D01*
X285661724Y-84907143D01*
D10*
D11*
X286404581Y-135464286D02*
X286342676Y-135526190D01*
X286156962Y-135588095D01*
X286033152Y-135588095D01*
X285847438Y-135526190D01*
X285723629Y-135402381D01*
X285661724Y-135278571D01*
X285599819Y-135030952D01*
X285599819Y-134845238D01*
X285661724Y-134597619D01*
X285723629Y-134473810D01*
X285847438Y-134350000D01*
X286033152Y-134288095D01*
X286156962Y-134288095D01*
X286342676Y-134350000D01*
X286404581Y-134411905D01*
D10*
D11*
X285661724Y-185588095D02*
X285661724Y-184288095D01*
X285971248Y-184288095D01*
X286156962Y-184350000D01*
X286280771Y-184473810D01*
X286342676Y-184597619D01*
X286404581Y-184845238D01*
X286404581Y-185030952D01*
X286342676Y-185278571D01*
X286280771Y-185402381D01*
X286156962Y-185526190D01*
X285971248Y-185588095D01*
X285661724Y-185588095D01*
D10*
D11*
X200359343Y-193785771D02*
X200359343Y-192285771D01*
X200716486Y-192285771D01*
X200930771Y-192357200D01*
X201073629Y-192500057D01*
X201145057Y-192642914D01*
X201216486Y-192928629D01*
X201216486Y-193142914D01*
X201145057Y-193428629D01*
X201073629Y-193571486D01*
X200930771Y-193714343D01*
X200716486Y-193785771D01*
X200359343Y-193785771D01*
X202502200Y-193785771D02*
X202502200Y-193000057D01*
X202430771Y-192857200D01*
X202287914Y-192785771D01*
X202002200Y-192785771D01*
X201859343Y-192857200D01*
X202502200Y-193714343D02*
X202359343Y-193785771D01*
X202002200Y-193785771D01*
X201859343Y-193714343D01*
X201787914Y-193571486D01*
X201787914Y-193428629D01*
X201859343Y-193285771D01*
X202002200Y-193214343D01*
X202359343Y-193214343D01*
X202502200Y-193142914D01*
X203002200Y-192785771D02*
X203573629Y-192785771D01*
X203216486Y-192285771D02*
X203216486Y-193571486D01*
X203287914Y-193714343D01*
X203430772Y-193785771D01*
X203573629Y-193785771D01*
X204645057Y-193714343D02*
X204502200Y-193785771D01*
X204216486Y-193785771D01*
X204073629Y-193714343D01*
X204002200Y-193571486D01*
X204002200Y-193000057D01*
X204073629Y-192857200D01*
X204216486Y-192785771D01*
X204502200Y-192785771D01*
X204645057Y-192857200D01*
X204716486Y-193000057D01*
X204716486Y-193142914D01*
X204002200Y-193285771D01*
X205359343Y-193642914D02*
X205430771Y-193714343D01*
X205359343Y-193785771D01*
X205287914Y-193714343D01*
X205359343Y-193642914D01*
X205359343Y-193785771D01*
X205359343Y-192857200D02*
X205430771Y-192928629D01*
X205359343Y-193000057D01*
X205287914Y-192928629D01*
X205359343Y-192857200D01*
X205359343Y-193000057D01*
D10*
D11*
X177002200Y-194507200D02*
X285002200Y-194507200D01*
D10*
D11*
X178359343Y-196585771D02*
X178359343Y-195085771D01*
X179216486Y-196585771D02*
X178573629Y-195728629D01*
X179216486Y-195085771D02*
X178359343Y-195942914D01*
X179859343Y-196585771D02*
X179859343Y-195585771D01*
X179859343Y-195085771D02*
X179787914Y-195157200D01*
X179859343Y-195228629D01*
X179930771Y-195157200D01*
X179859343Y-195085771D01*
X179859343Y-195228629D01*
X181430772Y-196442914D02*
X181359343Y-196514343D01*
X181145057Y-196585771D01*
X181002200Y-196585771D01*
X180787915Y-196514343D01*
X180645057Y-196371486D01*
X180573629Y-196228629D01*
X180502200Y-195942914D01*
X180502200Y-195728629D01*
X180573629Y-195442914D01*
X180645057Y-195300057D01*
X180787915Y-195157200D01*
X181002200Y-195085771D01*
X181145057Y-195085771D01*
X181359343Y-195157200D01*
X181430772Y-195228629D01*
X182716486Y-196585771D02*
X182716486Y-195800057D01*
X182645057Y-195657200D01*
X182502200Y-195585771D01*
X182216486Y-195585771D01*
X182073629Y-195657200D01*
X182716486Y-196514343D02*
X182573629Y-196585771D01*
X182216486Y-196585771D01*
X182073629Y-196514343D01*
X182002200Y-196371486D01*
X182002200Y-196228629D01*
X182073629Y-196085771D01*
X182216486Y-196014343D01*
X182573629Y-196014343D01*
X182716486Y-195942914D01*
X184073629Y-196585771D02*
X184073629Y-195085771D01*
X184073629Y-196514343D02*
X183930772Y-196585771D01*
X183645058Y-196585771D01*
X183502200Y-196514343D01*
X183430772Y-196442914D01*
X183359343Y-196300057D01*
X183359343Y-195871486D01*
X183430772Y-195728629D01*
X183502200Y-195657200D01*
X183645058Y-195585771D01*
X183930772Y-195585771D01*
X184073629Y-195657200D01*
X185930772Y-195800057D02*
X186430772Y-195800057D01*
X186645058Y-196585771D02*
X185930772Y-196585771D01*
X185930772Y-195085771D01*
X186645058Y-195085771D01*
X187287915Y-196442914D02*
X187359343Y-196514343D01*
X187287915Y-196585771D01*
X187216486Y-196514343D01*
X187287915Y-196442914D01*
X187287915Y-196585771D01*
X188002201Y-196585771D02*
X188002201Y-195085771D01*
X188359344Y-195085771D01*
X188573629Y-195157200D01*
X188716487Y-195300057D01*
X188787915Y-195442914D01*
X188859344Y-195728629D01*
X188859344Y-195942914D01*
X188787915Y-196228629D01*
X188716487Y-196371486D01*
X188573629Y-196514343D01*
X188359344Y-196585771D01*
X188002201Y-196585771D01*
X189502201Y-196442914D02*
X189573629Y-196514343D01*
X189502201Y-196585771D01*
X189430772Y-196514343D01*
X189502201Y-196442914D01*
X189502201Y-196585771D01*
X190145058Y-196157200D02*
X190859344Y-196157200D01*
X190002201Y-196585771D02*
X190502201Y-195085771D01*
X191002201Y-196585771D01*
X191502201Y-196442914D02*
X191573629Y-196514343D01*
X191502201Y-196585771D01*
X191430772Y-196514343D01*
X191502201Y-196442914D01*
X191502201Y-196585771D01*
X194502201Y-196585771D02*
X194502201Y-195085771D01*
X194645058Y-196014343D02*
X195073629Y-196585771D01*
X195073629Y-195585771D02*
X194502201Y-196157200D01*
X195716487Y-196585771D02*
X195716487Y-195585771D01*
X195716487Y-195085771D02*
X195645058Y-195157200D01*
X195716487Y-195228629D01*
X195787915Y-195157200D01*
X195716487Y-195085771D01*
X195716487Y-195228629D01*
X197073630Y-196514343D02*
X196930773Y-196585771D01*
X196645059Y-196585771D01*
X196502201Y-196514343D01*
X196430773Y-196442914D01*
X196359344Y-196300057D01*
X196359344Y-195871486D01*
X196430773Y-195728629D01*
X196502201Y-195657200D01*
X196645059Y-195585771D01*
X196930773Y-195585771D01*
X197073630Y-195657200D01*
X198359344Y-196585771D02*
X198359344Y-195800057D01*
X198287915Y-195657200D01*
X198145058Y-195585771D01*
X197859344Y-195585771D01*
X197716487Y-195657200D01*
X198359344Y-196514343D02*
X198216487Y-196585771D01*
X197859344Y-196585771D01*
X197716487Y-196514343D01*
X197645058Y-196371486D01*
X197645058Y-196228629D01*
X197716487Y-196085771D01*
X197859344Y-196014343D01*
X198216487Y-196014343D01*
X198359344Y-195942914D01*
X199716487Y-196585771D02*
X199716487Y-195085771D01*
X199716487Y-196514343D02*
X199573630Y-196585771D01*
X199287916Y-196585771D01*
X199145058Y-196514343D01*
X199073630Y-196442914D01*
X199002201Y-196300057D01*
X199002201Y-195871486D01*
X199073630Y-195728629D01*
X199145058Y-195657200D01*
X199287916Y-195585771D01*
X199573630Y-195585771D01*
X199716487Y-195657200D01*
X202216487Y-195585771D02*
X202216487Y-196585771D01*
X201859344Y-195014343D02*
X201502201Y-196085771D01*
X202430773Y-196085771D01*
X203002201Y-196442914D02*
X203073629Y-196514343D01*
X203002201Y-196585771D01*
X202930772Y-196514343D01*
X203002201Y-196442914D01*
X203002201Y-196585771D01*
X204002201Y-195085771D02*
X204145058Y-195085771D01*
X204287915Y-195157200D01*
X204359344Y-195228629D01*
X204430773Y-195371486D01*
X204502201Y-195657200D01*
X204502201Y-196014343D01*
X204430773Y-196300057D01*
X204359344Y-196442914D01*
X204287915Y-196514343D01*
X204145058Y-196585771D01*
X204002201Y-196585771D01*
X203859344Y-196514343D01*
X203787915Y-196442914D01*
X203716487Y-196300057D01*
X203645058Y-196014343D01*
X203645058Y-195657200D01*
X203716487Y-195371486D01*
X203787915Y-195228629D01*
X203859344Y-195157200D01*
X204002201Y-195085771D01*
X205145058Y-196442914D02*
X205216486Y-196514343D01*
X205145058Y-196585771D01*
X205073629Y-196514343D01*
X205145058Y-196442914D01*
X205145058Y-196585771D01*
X205716487Y-195085771D02*
X206716487Y-195085771D01*
X206073630Y-196585771D01*
D10*
D11*
X177002200Y-191507200D02*
X285002200Y-191507200D01*
D10*
D12*
X264216486Y-193785771D02*
X263716486Y-193071486D01*
X263359343Y-193785771D02*
X263359343Y-192285771D01*
X263930771Y-192285771D01*
X264073629Y-192357200D01*
X264145057Y-192428629D01*
X264216486Y-192571486D01*
X264216486Y-192785771D01*
X264145057Y-192928629D01*
X264073629Y-193000057D01*
X263930771Y-193071486D01*
X263359343Y-193071486D01*
X265430771Y-193714343D02*
X265287914Y-193785771D01*
X265002200Y-193785771D01*
X264859343Y-193714343D01*
X264787914Y-193571486D01*
X264787914Y-193000057D01*
X264859343Y-192857200D01*
X265002200Y-192785771D01*
X265287914Y-192785771D01*
X265430771Y-192857200D01*
X265502200Y-193000057D01*
X265502200Y-193142914D01*
X264787914Y-193285771D01*
X266002200Y-192785771D02*
X266359343Y-193785771D01*
X266716485Y-192785771D01*
X267287914Y-193642914D02*
X267359342Y-193714343D01*
X267287914Y-193785771D01*
X267216485Y-193714343D01*
X267287914Y-193642914D01*
X267287914Y-193785771D01*
X267287914Y-192857200D02*
X267359342Y-192928629D01*
X267287914Y-193000057D01*
X267216485Y-192928629D01*
X267287914Y-192857200D01*
X267287914Y-193000057D01*
D10*
D11*
X178287914Y-193714343D02*
X178502200Y-193785771D01*
X178859343Y-193785771D01*
X179002200Y-193714343D01*
X179073629Y-193642914D01*
X179145057Y-193500057D01*
X179145057Y-193357200D01*
X179073629Y-193214343D01*
X179002200Y-193142914D01*
X178859343Y-193071486D01*
X178573629Y-193000057D01*
X178430771Y-192928629D01*
X178359343Y-192857200D01*
X178287914Y-192714343D01*
X178287914Y-192571486D01*
X178359343Y-192428629D01*
X178430771Y-192357200D01*
X178573629Y-192285771D01*
X178930771Y-192285771D01*
X179145057Y-192357200D01*
X179787914Y-193785771D02*
X179787914Y-192785771D01*
X179787914Y-192285771D02*
X179716485Y-192357200D01*
X179787914Y-192428629D01*
X179859342Y-192357200D01*
X179787914Y-192285771D01*
X179787914Y-192428629D01*
X180359343Y-192785771D02*
X181145057Y-192785771D01*
X180359343Y-193785771D01*
X181145057Y-193785771D01*
X182287914Y-193714343D02*
X182145057Y-193785771D01*
X181859343Y-193785771D01*
X181716486Y-193714343D01*
X181645057Y-193571486D01*
X181645057Y-193000057D01*
X181716486Y-192857200D01*
X181859343Y-192785771D01*
X182145057Y-192785771D01*
X182287914Y-192857200D01*
X182359343Y-193000057D01*
X182359343Y-193142914D01*
X181645057Y-193285771D01*
X183002200Y-193642914D02*
X183073628Y-193714343D01*
X183002200Y-193785771D01*
X182930771Y-193714343D01*
X183002200Y-193642914D01*
X183002200Y-193785771D01*
X183002200Y-192857200D02*
X183073628Y-192928629D01*
X183002200Y-193000057D01*
X182930771Y-192928629D01*
X183002200Y-192857200D01*
X183002200Y-193000057D01*
X184787914Y-193357200D02*
X185502200Y-193357200D01*
X184645057Y-193785771D02*
X185145057Y-192285771D01*
X185645057Y-193785771D01*
X186787914Y-192785771D02*
X186787914Y-193785771D01*
X186430771Y-192214343D02*
X186073628Y-193285771D01*
X187002200Y-193285771D01*
D10*
D11*
X263359343Y-196585771D02*
X263359343Y-195085771D01*
X264716486Y-196585771D02*
X264716486Y-195085771D01*
X264716486Y-196514343D02*
X264573629Y-196585771D01*
X264287915Y-196585771D01*
X264145057Y-196514343D01*
X264073629Y-196442914D01*
X264002200Y-196300057D01*
X264002200Y-195871486D01*
X264073629Y-195728629D01*
X264145057Y-195657200D01*
X264287915Y-195585771D01*
X264573629Y-195585771D01*
X264716486Y-195657200D01*
X265430772Y-196442914D02*
X265502200Y-196514343D01*
X265430772Y-196585771D01*
X265359343Y-196514343D01*
X265430772Y-196442914D01*
X265430772Y-196585771D01*
X265430772Y-195657200D02*
X265502200Y-195728629D01*
X265430772Y-195800057D01*
X265359343Y-195728629D01*
X265430772Y-195657200D01*
X265430772Y-195800057D01*
X268073629Y-196585771D02*
X267216486Y-196585771D01*
X267645058Y-196585771D02*
X267645058Y-195085771D01*
X267502201Y-195300057D01*
X267359343Y-195442914D01*
X267216486Y-195514343D01*
X269787914Y-195014343D02*
X268502200Y-196942914D01*
X271073629Y-196585771D02*
X270216486Y-196585771D01*
X270645058Y-196585771D02*
X270645058Y-195085771D01*
X270502201Y-195300057D01*
X270359343Y-195442914D01*
X270216486Y-195514343D01*
D10*
D11*
X177002200Y-187507200D02*
X285002200Y-187507200D01*
D10*
D13*
X178454581Y-188211962D02*
X179597438Y-188211962D01*
X178776010Y-190211962D02*
X179026010Y-188211962D01*
X180014105Y-190211962D02*
X180180771Y-188878629D01*
X180264105Y-188211962D02*
X180156962Y-188307200D01*
X180240295Y-188402438D01*
X180347439Y-188307200D01*
X180264105Y-188211962D01*
X180240295Y-188402438D01*
X180847438Y-188878629D02*
X181609343Y-188878629D01*
X181216486Y-188211962D02*
X181002200Y-189926248D01*
X181073630Y-190116724D01*
X181252201Y-190211962D01*
X181442677Y-190211962D01*
X182395058Y-190211962D02*
X182216487Y-190116724D01*
X182145057Y-189926248D01*
X182359343Y-188211962D01*
X183930772Y-190116724D02*
X183728391Y-190211962D01*
X183347439Y-190211962D01*
X183168867Y-190116724D01*
X183097438Y-189926248D01*
X183192676Y-189164343D01*
X183311724Y-188973867D01*
X183514105Y-188878629D01*
X183895057Y-188878629D01*
X184073629Y-188973867D01*
X184145057Y-189164343D01*
X184121248Y-189354819D01*
X183145057Y-189545295D01*
X184895057Y-190021486D02*
X184978392Y-190116724D01*
X184871248Y-190211962D01*
X184787915Y-190116724D01*
X184895057Y-190021486D01*
X184871248Y-190211962D01*
X185026010Y-188973867D02*
X185109344Y-189069105D01*
X185002200Y-189164343D01*
X184918867Y-189069105D01*
X185026010Y-188973867D01*
X185002200Y-189164343D01*
D10*
D11*
X178859343Y-185600057D02*
X178359343Y-185600057D01*
X178359343Y-186385771D02*
X178359343Y-184885771D01*
X179073629Y-184885771D01*
X179645057Y-186385771D02*
X179645057Y-185385771D01*
X179645057Y-184885771D02*
X179573628Y-184957200D01*
X179645057Y-185028629D01*
X179716485Y-184957200D01*
X179645057Y-184885771D01*
X179645057Y-185028629D01*
X180573629Y-186385771D02*
X180430771Y-186314343D01*
X180359343Y-186171486D01*
X180359343Y-184885771D01*
X181716485Y-186314343D02*
X181573628Y-186385771D01*
X181287914Y-186385771D01*
X181145057Y-186314343D01*
X181073628Y-186171486D01*
X181073628Y-185600057D01*
X181145057Y-185457200D01*
X181287914Y-185385771D01*
X181573628Y-185385771D01*
X181716485Y-185457200D01*
X181787914Y-185600057D01*
X181787914Y-185742914D01*
X181073628Y-185885771D01*
X182430771Y-186242914D02*
X182502199Y-186314343D01*
X182430771Y-186385771D01*
X182359342Y-186314343D01*
X182430771Y-186242914D01*
X182430771Y-186385771D01*
X182430771Y-185457200D02*
X182502199Y-185528629D01*
X182430771Y-185600057D01*
X182359342Y-185528629D01*
X182430771Y-185457200D01*
X182430771Y-185600057D01*
X184930771Y-186314343D02*
X184787914Y-186385771D01*
X184502200Y-186385771D01*
X184359342Y-186314343D01*
X184287914Y-186242914D01*
X184216485Y-186100057D01*
X184216485Y-185671486D01*
X184287914Y-185528629D01*
X184359342Y-185457200D01*
X184502200Y-185385771D01*
X184787914Y-185385771D01*
X184930771Y-185457200D01*
X186216485Y-186385771D02*
X186216485Y-185600057D01*
X186145056Y-185457200D01*
X186002199Y-185385771D01*
X185716485Y-185385771D01*
X185573628Y-185457200D01*
X186216485Y-186314343D02*
X186073628Y-186385771D01*
X185716485Y-186385771D01*
X185573628Y-186314343D01*
X185502199Y-186171486D01*
X185502199Y-186028629D01*
X185573628Y-185885771D01*
X185716485Y-185814343D01*
X186073628Y-185814343D01*
X186216485Y-185742914D01*
X186930771Y-185385771D02*
X186930771Y-186385771D01*
X186930771Y-185528629D02*
X187002199Y-185457200D01*
X187145057Y-185385771D01*
X187359342Y-185385771D01*
X187502199Y-185457200D01*
X187573628Y-185600057D01*
X187573628Y-186385771D01*
X188502200Y-186385771D02*
X188359342Y-186314343D01*
X188287914Y-186242914D01*
X188216485Y-186100057D01*
X188216485Y-185671486D01*
X188287914Y-185528629D01*
X188359342Y-185457200D01*
X188502200Y-185385771D01*
X188716485Y-185385771D01*
X188859342Y-185457200D01*
X188930771Y-185528629D01*
X189002200Y-185671486D01*
X189002200Y-186100057D01*
X188930771Y-186242914D01*
X188859342Y-186314343D01*
X188716485Y-186385771D01*
X188502200Y-186385771D01*
X189645057Y-185385771D02*
X189645057Y-186385771D01*
X189645057Y-185528629D02*
X189716485Y-185457200D01*
X189859343Y-185385771D01*
X190073628Y-185385771D01*
X190216485Y-185457200D01*
X190287914Y-185600057D01*
X190287914Y-186385771D01*
X190645057Y-186528629D02*
X191787914Y-186528629D01*
X191930771Y-185385771D02*
X192502200Y-185385771D01*
X192145057Y-184885771D02*
X192145057Y-186171486D01*
X192216485Y-186314343D01*
X192359343Y-186385771D01*
X192502200Y-186385771D01*
X193002200Y-186385771D02*
X193002200Y-185385771D01*
X193002200Y-185671486D02*
X193073628Y-185528629D01*
X193145057Y-185457200D01*
X193287914Y-185385771D01*
X193430771Y-185385771D01*
X193930771Y-186385771D02*
X193930771Y-185385771D01*
X193930771Y-184885771D02*
X193859342Y-184957200D01*
X193930771Y-185028629D01*
X194002199Y-184957200D01*
X193930771Y-184885771D01*
X193930771Y-185028629D01*
X195287914Y-185385771D02*
X195287914Y-186600057D01*
X195216485Y-186742914D01*
X195145057Y-186814343D01*
X195002200Y-186885771D01*
X194787914Y-186885771D01*
X194645057Y-186814343D01*
X195287914Y-186314343D02*
X195145057Y-186385771D01*
X194859343Y-186385771D01*
X194716485Y-186314343D01*
X194645057Y-186242914D01*
X194573628Y-186100057D01*
X194573628Y-185671486D01*
X194645057Y-185528629D01*
X194716485Y-185457200D01*
X194859343Y-185385771D01*
X195145057Y-185385771D01*
X195287914Y-185457200D01*
X196645057Y-185385771D02*
X196645057Y-186600057D01*
X196573628Y-186742914D01*
X196502200Y-186814343D01*
X196359343Y-186885771D01*
X196145057Y-186885771D01*
X196002200Y-186814343D01*
X196645057Y-186314343D02*
X196502200Y-186385771D01*
X196216486Y-186385771D01*
X196073628Y-186314343D01*
X196002200Y-186242914D01*
X195930771Y-186100057D01*
X195930771Y-185671486D01*
X196002200Y-185528629D01*
X196073628Y-185457200D01*
X196216486Y-185385771D01*
X196502200Y-185385771D01*
X196645057Y-185457200D01*
X197930771Y-186314343D02*
X197787914Y-186385771D01*
X197502200Y-186385771D01*
X197359343Y-186314343D01*
X197287914Y-186171486D01*
X197287914Y-185600057D01*
X197359343Y-185457200D01*
X197502200Y-185385771D01*
X197787914Y-185385771D01*
X197930771Y-185457200D01*
X198002200Y-185600057D01*
X198002200Y-185742914D01*
X197287914Y-185885771D01*
X198645057Y-186385771D02*
X198645057Y-185385771D01*
X198645057Y-185671486D02*
X198716485Y-185528629D01*
X198787914Y-185457200D01*
X198930771Y-185385771D01*
X199073628Y-185385771D01*
X199573628Y-186242914D02*
X199645056Y-186314343D01*
X199573628Y-186385771D01*
X199502199Y-186314343D01*
X199573628Y-186242914D01*
X199573628Y-186385771D01*
X200287914Y-186385771D02*
X200287914Y-184885771D01*
X200430771Y-185814343D02*
X200859342Y-186385771D01*
X200859342Y-185385771D02*
X200287914Y-185957200D01*
X201502200Y-186385771D02*
X201502200Y-185385771D01*
X201502200Y-184885771D02*
X201430771Y-184957200D01*
X201502200Y-185028629D01*
X201573628Y-184957200D01*
X201502200Y-184885771D01*
X201502200Y-185028629D01*
X202859343Y-186314343D02*
X202716486Y-186385771D01*
X202430772Y-186385771D01*
X202287914Y-186314343D01*
X202216486Y-186242914D01*
X202145057Y-186100057D01*
X202145057Y-185671486D01*
X202216486Y-185528629D01*
X202287914Y-185457200D01*
X202430772Y-185385771D01*
X202716486Y-185385771D01*
X202859343Y-185457200D01*
X204145057Y-186385771D02*
X204145057Y-185600057D01*
X204073628Y-185457200D01*
X203930771Y-185385771D01*
X203645057Y-185385771D01*
X203502200Y-185457200D01*
X204145057Y-186314343D02*
X204002200Y-186385771D01*
X203645057Y-186385771D01*
X203502200Y-186314343D01*
X203430771Y-186171486D01*
X203430771Y-186028629D01*
X203502200Y-185885771D01*
X203645057Y-185814343D01*
X204002200Y-185814343D01*
X204145057Y-185742914D01*
X205502200Y-186385771D02*
X205502200Y-184885771D01*
X205502200Y-186314343D02*
X205359343Y-186385771D01*
X205073629Y-186385771D01*
X204930771Y-186314343D01*
X204859343Y-186242914D01*
X204787914Y-186100057D01*
X204787914Y-185671486D01*
X204859343Y-185528629D01*
X204930771Y-185457200D01*
X205073629Y-185385771D01*
X205359343Y-185385771D01*
X205502200Y-185457200D01*
X205859343Y-186528629D02*
X207002200Y-186528629D01*
X207359343Y-185385771D02*
X207359343Y-186885771D01*
X207359343Y-185457200D02*
X207502200Y-185385771D01*
X207787914Y-185385771D01*
X207930771Y-185457200D01*
X208002200Y-185528629D01*
X208073629Y-185671486D01*
X208073629Y-186100057D01*
X208002200Y-186242914D01*
X207930771Y-186314343D01*
X207787914Y-186385771D01*
X207502200Y-186385771D01*
X207359343Y-186314343D01*
X209359343Y-186314343D02*
X209216486Y-186385771D01*
X208930772Y-186385771D01*
X208787914Y-186314343D01*
X208716486Y-186242914D01*
X208645057Y-186100057D01*
X208645057Y-185671486D01*
X208716486Y-185528629D01*
X208787914Y-185457200D01*
X208930772Y-185385771D01*
X209216486Y-185385771D01*
X209359343Y-185457200D01*
X210002200Y-186385771D02*
X210002200Y-184885771D01*
X210002200Y-185457200D02*
X210145057Y-185385771D01*
X210430771Y-185385771D01*
X210573628Y-185457200D01*
X210645057Y-185528629D01*
X210716486Y-185671486D01*
X210716486Y-186100057D01*
X210645057Y-186242914D01*
X210573628Y-186314343D01*
X210430771Y-186385771D01*
X210145057Y-186385771D01*
X210002200Y-186314343D01*
D10*
D11*
X177002200Y-181507200D02*
X285002200Y-181507200D01*
D10*
D11*
X178287914Y-183614343D02*
X178502200Y-183685771D01*
X178859343Y-183685771D01*
X179002200Y-183614343D01*
X179073629Y-183542914D01*
X179145057Y-183400057D01*
X179145057Y-183257200D01*
X179073629Y-183114343D01*
X179002200Y-183042914D01*
X178859343Y-182971486D01*
X178573629Y-182900057D01*
X178430771Y-182828629D01*
X178359343Y-182757200D01*
X178287914Y-182614343D01*
X178287914Y-182471486D01*
X178359343Y-182328629D01*
X178430771Y-182257200D01*
X178573629Y-182185771D01*
X178930771Y-182185771D01*
X179145057Y-182257200D01*
X179787914Y-183685771D02*
X179787914Y-182185771D01*
X180430771Y-183685771D02*
X180430771Y-182900057D01*
X180359342Y-182757200D01*
X180216485Y-182685771D01*
X180002200Y-182685771D01*
X179859342Y-182757200D01*
X179787914Y-182828629D01*
X181716485Y-183614343D02*
X181573628Y-183685771D01*
X181287914Y-183685771D01*
X181145057Y-183614343D01*
X181073628Y-183471486D01*
X181073628Y-182900057D01*
X181145057Y-182757200D01*
X181287914Y-182685771D01*
X181573628Y-182685771D01*
X181716485Y-182757200D01*
X181787914Y-182900057D01*
X181787914Y-183042914D01*
X181073628Y-183185771D01*
X183002199Y-183614343D02*
X182859342Y-183685771D01*
X182573628Y-183685771D01*
X182430771Y-183614343D01*
X182359342Y-183471486D01*
X182359342Y-182900057D01*
X182430771Y-182757200D01*
X182573628Y-182685771D01*
X182859342Y-182685771D01*
X183002199Y-182757200D01*
X183073628Y-182900057D01*
X183073628Y-183042914D01*
X182359342Y-183185771D01*
X183502199Y-182685771D02*
X184073628Y-182685771D01*
X183716485Y-182185771D02*
X183716485Y-183471486D01*
X183787913Y-183614343D01*
X183930771Y-183685771D01*
X184073628Y-183685771D01*
X184573628Y-183542914D02*
X184645056Y-183614343D01*
X184573628Y-183685771D01*
X184502199Y-183614343D01*
X184573628Y-183542914D01*
X184573628Y-183685771D01*
X184573628Y-182757200D02*
X184645056Y-182828629D01*
X184573628Y-182900057D01*
X184502199Y-182828629D01*
X184573628Y-182757200D01*
X184573628Y-182900057D01*
D10*
D11*
X197002200Y-191507200D02*
X197002200Y-194507200D01*
D10*
D11*
X261002200Y-191507200D02*
X261002200Y-198007200D01*
D14*
X175250000Y-72500000D03*
D15*
X175250000Y-75040000D03*
X175250000Y-77580000D03*
D14*
X140500000Y-75750000D03*
D15*
X140500000Y-78290000D03*
D14*
X143500000Y-75750000D03*
D15*
X143500000Y-78290000D03*
D14*
X171000000Y-92750000D03*
D15*
X168460000Y-92750000D03*
X165920000Y-92750000D03*
X163380000Y-92750000D03*
X160840000Y-92750000D03*
X158300000Y-92750000D03*
D14*
X144500000Y-82250000D03*
D15*
X141960000Y-82250000D03*
D16*
X159500000Y-80850000D03*
X159500000Y-78150000D03*
D17*
X162150000Y-74000000D03*
X164850000Y-74000000D03*
D16*
X163500000Y-80600000D03*
X163500000Y-77900000D03*
X165500000Y-85350000D03*
X165500000Y-82650000D03*
X161500000Y-85600000D03*
X161500000Y-82900000D03*
X167500000Y-80600000D03*
X167500000Y-77900000D03*
X169500000Y-85350000D03*
X169500000Y-82650000D03*
D17*
X166150000Y-71500000D03*
X168850000Y-71500000D03*
D18*
X154500000Y-94750000D03*
D19*
X146880000Y-94750000D03*
D18*
X141500000Y-65750000D03*
D19*
X133880000Y-70830000D03*
X141500000Y-68290000D03*
X133880000Y-68290000D03*
X141500000Y-70830000D03*
X133880000Y-65750000D03*
D18*
X153000000Y-65750000D03*
D19*
X145380000Y-70830000D03*
X153000000Y-68290000D03*
X145380000Y-68290000D03*
X153000000Y-70830000D03*
X145380000Y-65750000D03*
D20*
X183280000Y-77450000D03*
X181000000Y-77450000D03*
X178720000Y-77450000D03*
D21*
X181000000Y-71150000D03*
D22*
X179475000Y-69475000D03*
X182525000Y-72825000D03*
X182525000Y-69475000D03*
X179475000Y-72825000D03*
D23*
X178750000Y-77500000D03*
X180000000Y-79750000D03*
X182000000Y-80500000D03*
X158750000Y-83000000D03*
X158250000Y-90500000D03*
X179750000Y-83000000D03*
X171475001Y-86725001D03*
X151500000Y-74250000D03*
X146750000Y-82250000D03*
X166000000Y-75750000D03*
X152250000Y-78000000D03*
X149500000Y-77750000D03*
X163500000Y-71500000D03*
X170000000Y-75750000D03*
D24*
X178720000Y-77470000D02*
X178720000Y-77450000D01*
X178750000Y-77500000D02*
X178720000Y-77470000D01*
X181250000Y-79750000D02*
X180000000Y-79750000D01*
X182000000Y-80500000D02*
X181250000Y-79750000D01*
X158750000Y-90000000D02*
X158750000Y-83000000D01*
X158250000Y-90500000D02*
X158750000Y-90000000D01*
X181000000Y-77450000D02*
X181000000Y-78250000D01*
X181000000Y-78250000D02*
X182750000Y-80000000D01*
X180500000Y-83000000D02*
X179750000Y-83000000D01*
X182750000Y-80750000D02*
X180500000Y-83000000D01*
X182750000Y-80000000D02*
X182750000Y-80750000D01*
X171250000Y-84400000D02*
X169500000Y-82650000D01*
X171250000Y-86500000D02*
X171250000Y-84400000D01*
X171475001Y-86725001D02*
X171250000Y-86500000D01*
X181000000Y-77450000D02*
X181000000Y-78000000D01*
X181000000Y-78000000D02*
X180000000Y-79000000D01*
X176670000Y-79000000D02*
X175250000Y-77580000D01*
X180000000Y-79000000D02*
X176670000Y-79000000D01*
X175250000Y-76900000D02*
X181000000Y-71150000D01*
X151960000Y-68290000D02*
X153000000Y-68290000D01*
X151500000Y-68750000D02*
X151960000Y-68290000D01*
X151500000Y-74250000D02*
X151500000Y-68750000D01*
X155650000Y-82000000D02*
X159500000Y-78150000D01*
X147000000Y-82000000D02*
X155650000Y-82000000D01*
X146750000Y-82250000D02*
X147000000Y-82000000D01*
X153000000Y-68290000D02*
X153000000Y-68250000D01*
X153000000Y-68250000D02*
X149000000Y-64250000D01*
X149000000Y-64250000D02*
X144250000Y-64250000D01*
X144250000Y-64250000D02*
X143250000Y-65250000D01*
X143250000Y-65250000D02*
X143250000Y-66540000D01*
X143250000Y-66540000D02*
X141500000Y-68290000D01*
X181000000Y-71150000D02*
X181000000Y-77450000D01*
X175250000Y-77580000D02*
X175250000Y-76900000D01*
X167500000Y-77900000D02*
X174930000Y-77900000D01*
X174930000Y-77900000D02*
X175250000Y-77580000D01*
X167500000Y-77900000D02*
X168400000Y-77900000D01*
X168400000Y-77900000D02*
X169500000Y-79000000D01*
X169500000Y-79000000D02*
X169500000Y-82650000D01*
X165500000Y-78750000D02*
X166250000Y-78000000D01*
X166250000Y-78000000D02*
X167400000Y-78000000D01*
X167400000Y-78000000D02*
X167500000Y-77900000D01*
X163500000Y-77900000D02*
X164650000Y-77900000D01*
X164650000Y-77900000D02*
X165500000Y-78750000D01*
X165500000Y-78750000D02*
X165500000Y-82650000D01*
X163500000Y-77900000D02*
X162600000Y-77900000D01*
X162600000Y-77900000D02*
X161500000Y-79000000D01*
X159500000Y-78150000D02*
X160650000Y-78150000D01*
X160650000Y-78150000D02*
X161500000Y-79000000D01*
X161500000Y-79000000D02*
X161500000Y-82900000D01*
X183280000Y-84470000D02*
X183280000Y-77450000D01*
X169500000Y-98250000D02*
X183280000Y-84470000D01*
X146750000Y-98250000D02*
X169500000Y-98250000D01*
X141960000Y-93460000D02*
X146750000Y-98250000D01*
X141960000Y-82250000D02*
X141960000Y-93460000D01*
X169500000Y-85350000D02*
X169500000Y-91250000D01*
X169500000Y-91250000D02*
X171000000Y-92750000D01*
X167500000Y-80600000D02*
X167500000Y-91790000D01*
X167500000Y-91790000D02*
X168460000Y-92750000D01*
X165500000Y-85350000D02*
X165500000Y-92330000D01*
X165500000Y-92330000D02*
X165920000Y-92750000D01*
X163500000Y-80600000D02*
X163500000Y-92630000D01*
X163500000Y-92630000D02*
X163380000Y-92750000D01*
X161500000Y-85600000D02*
X161500000Y-92090000D01*
X161500000Y-92090000D02*
X160840000Y-92750000D01*
X159500000Y-80850000D02*
X159500000Y-91550000D01*
X159500000Y-91550000D02*
X158300000Y-92750000D01*
X162150000Y-74000000D02*
X161250000Y-74000000D01*
X155500000Y-68250000D02*
X153000000Y-65750000D01*
X155500000Y-70750000D02*
X155500000Y-68250000D01*
X156000000Y-71250000D02*
X155500000Y-70750000D01*
X158500000Y-71250000D02*
X156000000Y-71250000D01*
X161250000Y-74000000D02*
X158500000Y-71250000D01*
X164850000Y-74600000D02*
X164850000Y-74000000D01*
X166000000Y-75750000D02*
X164850000Y-74600000D01*
X149750000Y-78000000D02*
X152250000Y-78000000D01*
X149500000Y-77750000D02*
X149750000Y-78000000D01*
X166150000Y-71500000D02*
X163500000Y-71500000D01*
X168850000Y-74600000D02*
X170000000Y-75750000D01*
X168850000Y-71500000D02*
X168850000Y-74600000D01*
M02*
